{
  "name": "gunasoPortal",
  "version": "0.0.1",
  "author": "Ionic Framework",
  "homepage": "http://ionicframework.com/",
  "private": true,
  "scripts": {
    "clean": "ionic-app-scripts clean",
    "build": "ionic-app-scripts build",
    "lint": "ionic-app-scripts lint",
    "ionic:build": "ionic-app-scripts build",
    "ionic:serve": "ionic-app-scripts serve"
  },
  "dependencies": {
    "@angular/common": "5.0.3",
    "@angular/compiler": "5.0.3",
    "@angular/compiler-cli": "5.0.3",
    "@angular/core": "5.0.3",
    "@angular/forms": "5.0.3",
    "@angular/http": "5.0.3",
    "@angular/platform-browser": "5.0.3",
    "@angular/platform-browser-dynamic": "5.0.3",
    "@ionic-native/app-version": "^4.5.3",
    "@ionic-native/camera": "^4.5.3",
    "@ionic-native/core": "4.4.0",
    "@ionic-native/file": "^4.5.3",
    "@ionic-native/file-transfer": "^4.5.3",
    "@ionic-native/network": "^5.0.0",
    "@ionic-native/push": "^4.5.3",
    "@ionic-native/splash-screen": "4.4.0",
    "@ionic-native/status-bar": "4.4.0",
    "@ionic/storage": "^2.1.3",
    "cordova-android": "6.3.0",
    "cordova-plugin-app-version": "^0.1.9",
    "cordova-plugin-camera": "^4.0.2",
    "cordova-plugin-device": "^1.1.4",
    "cordova-plugin-file": "^6.0.1",
    "cordova-plugin-file-transfer": "^1.7.1",
    "cordova-plugin-ionic-keyboard": "^2.0.5",
    "cordova-plugin-ionic-webview": "^1.1.16",
    "cordova-plugin-network-information": "2.0.1",
    "cordova-plugin-splashscreen": "^4.0.3",
    "cordova-plugin-whitelist": "^1.3.1",
    "cordova-sqlite-storage": "3.2.0",
    "ionic-angular": "3.9.2",
    "ionicons": "3.0.0",
    "ng2-select": "^2.0.0",
    "phonegap-plugin-push": "^2.1.3",
    "rxjs": "5.5.2",
    "sw-toolbox": "3.6.0",
    "zone.js": "0.8.18"
  },
  "devDependencies": {
    "@ionic/app-scripts": "^3.2.4",
    "@ionic/lab": "1.0.24",
    "copyfiles": "^1.2.0",
    "typescript": "2.4.2"
  },
  "description": "An Ionic project",
  "cordova": {
    "plugins": {
      "cordova-plugin-whitelist": {},
      "cordova-plugin-device": {},
      "cordova-plugin-splashscreen": {},
      "cordova-plugin-ionic-webview": {},
      "cordova-plugin-ionic-keyboard": {},
      "phonegap-plugin-push": {
        "FCM_VERSION": "11.6.2"
      },
      "cordova-plugin-network-information": {},
      "cordova-plugin-app-version": {},
      "cordova-plugin-camera": {},
      "cordova-plugin-file-transfer": {},
      "cordova-plugin-file": {},
      "cordova-sqlite-storage": {}
    },
    "platforms": [
      "android"
    ]
  }
}
